<?xml version="1.0" encoding="UTF-8" standalone="no"?>
<svg
   width="793.79047"
   height="517.56622"
   version="1.1"
   id="svg1144"
   xmlns="http://www.w3.org/2000/svg"
   xmlns:svg="http://www.w3.org/2000/svg">
  <defs
     id="defs1148" />
  <g
     id="g840"
     transform="translate(-121.19204,-33.690134)" />
  <g
     transform="matrix(1.2090681,0,0,1.2090681,358.80796,266.30987)"
     id="g1142">
    <text
       text-anchor="middle"
       transform="rotate(15,-391.68133,47.702143)"
       style="font-size:100px;font-family:'Gentium Basic';fill:#e7ba52"
       id="text842">Wordle</text>
    <text
       text-anchor="middle"
       transform="rotate(-45,-12.175138,-294.95689)"
       style="font-size:94px;font-family:'Gentium Basic';fill:#393b79"
       id="text844">Word</text>
    <text
       text-anchor="middle"
       transform="rotate(-15,106.68092,-546.19217)"
       style="font-size:79px;font-family:'Gentium Basic';fill:#5254a3"
       id="text846">Master</text>
    <text
       text-anchor="middle"
       transform="rotate(60,-160.06664,-69.243556)"
       style="font-size:57px;font-family:'Gentium Basic';fill:#6b6ecf"
       id="text848">English</text>
    <text
       text-anchor="middle"
       transform="rotate(-60,-16.353828,-115.67434)"
       style="font-size:40px;font-family:'Gentium Basic';fill:#9c9ede"
       id="text850">clone</text>
    <text
       text-anchor="middle"
       transform="rotate(45,189.68377,273.56959)"
       style="font-size:40px;font-family:'Gentium Basic';fill:#637939"
       id="text852">variant</text>
    <text
       text-anchor="middle"
       transform="rotate(30,-192.275,-426.48006)"
       style="font-size:40px;font-family:'Gentium Basic';fill:#8ca252"
       id="text854">Filipino</text>
    <text
       text-anchor="middle"
       transform="rotate(-45,-2.6213203,-3.9142137)"
       style="font-size:40px;font-family:'Gentium Basic';fill:#b5cf6b"
       id="text856">french</text>
    <text
       text-anchor="middle"
       transform="translate(-4,-55)"
       style="font-size:40px;font-family:'Gentium Basic';fill:#cedb9c"
       id="text858">based</text>
    <text
       text-anchor="middle"
       transform="rotate(30,333.43971,154.65509)"
       style="font-size:40px;font-family:'Gentium Basic';fill:#8c6d31"
       id="text860">Motus</text>
    <text
       text-anchor="middle"
       transform="rotate(-15,676.16035,-440.30912)"
       style="font-size:40px;font-family:'Gentium Basic';fill:#bd9e39"
       id="text862">German</text>
    <text
       text-anchor="middle"
       transform="rotate(60,16.45002,184.49227)"
       style="font-size:40px;font-family:'Gentium Basic';fill:#e7ba52"
       id="text864">Deutsch</text>
    <text
       text-anchor="middle"
       transform="rotate(15,-500.92614,-19.053269)"
       style="font-size:40px;font-family:'Gentium Basic';fill:#e7cb94"
       id="text866">Greek</text>
    <text
       text-anchor="middle"
       transform="rotate(-30,-179.15509,-242.00447)"
       style="font-size:40px;font-family:'Gentium Basic';fill:#843c39"
       id="text868">בול</text>
    <text
       text-anchor="middle"
       transform="rotate(-15,-347.02183,-1208.661)"
       style="font-size:40px;font-family:'Gentium Basic';fill:#ad494a"
       id="text870">Bokmål</text>
    <text
       text-anchor="middle"
       transform="rotate(45,46.659387,324.32695)"
       style="font-size:40px;font-family:'Gentium Basic';fill:#d6616b"
       id="text872">Nynorsk</text>
    <text
       text-anchor="middle"
       transform="rotate(60,-216.19804,-56.465987)"
       style="font-size:40px;font-family:'Gentium Basic';fill:#e7969c"
       id="text874">Ordlig</text>
    <text
       text-anchor="middle"
       transform="translate(-150,-4)"
       style="font-size:40px;font-family:'Gentium Basic';fill:#7b4173"
       id="text876">Portuguese</text>
    <text
       text-anchor="middle"
       transform="rotate(-15,-185.92572,385.07496)"
       style="font-size:40px;font-family:'Gentium Basic';fill:#a55194"
       id="text878">ווערטל</text>
    <text
       text-anchor="middle"
       transform="rotate(15,411.20259,394.05372)"
       style="font-size:10px;font-family:'Gentium Basic';fill:#ce6dbd"
       id="text880">411</text>
    <text
       text-anchor="middle"
       transform="translate(176,10)"
       style="font-size:10px;font-family:'Gentium Basic';fill:#de9ed6"
       id="text882">Basque</text>
    <text
       text-anchor="middle"
       transform="rotate(-60,-237.37754,133.14994)"
       style="font-size:10px;font-family:'Gentium Basic';fill:#393b79"
       id="text884">euskara</text>
    <text
       text-anchor="middle"
       transform="rotate(60,73.215393,174.81278)"
       style="font-size:10px;font-family:'Gentium Basic';fill:#5254a3"
       id="text886">EUS</text>
    <text
       text-anchor="middle"
       transform="rotate(15,170.23421,383.27708)"
       style="font-size:10px;font-family:'Gentium Basic';fill:#6b6ecf"
       id="text888">Belarusian</text>
    <text
       text-anchor="middle"
       transform="translate(51,-91)"
       style="font-size:10px;font-family:'Gentium Basic';fill:#9c9ede"
       id="text890">Беларуская</text>
    <text
       text-anchor="middle"
       transform="rotate(-60,94.542942,-89.753176)"
       style="font-size:10px;font-family:'Gentium Basic';fill:#637939"
       id="text892">Ўордлі</text>
    <text
       text-anchor="middle"
       transform="translate(123,-115)"
       style="font-size:10px;font-family:'Gentium Basic';fill:#8ca252"
       id="text894">Catalan</text>
    <text
       text-anchor="middle"
       transform="rotate(-15,559.23466,-579.34119)"
       style="font-size:10px;font-family:'Gentium Basic';fill:#b5cf6b"
       id="text896">català</text>
    <text
       text-anchor="middle"
       transform="rotate(45,171.54773,199.05739)"
       style="font-size:10px;font-family:'Gentium Basic';fill:#cedb9c"
       id="text898">WordleCAT</text>
    <text
       text-anchor="middle"
       transform="rotate(-15,150.90446,174.41509)"
       style="font-size:10px;font-family:'Gentium Basic';fill:#8c6d31"
       id="text900">Danish</text>
    <text
       text-anchor="middle"
       transform="rotate(-60,-23.241671,66.255754)"
       style="font-size:10px;font-family:'Gentium Basic';fill:#bd9e39"
       id="text902">dansk</text>
    <text
       text-anchor="middle"
       transform="translate(43,-100)"
       style="font-size:10px;font-family:'Gentium Basic';fill:#e7ba52"
       id="text904">Wørdle</text>
    <text
       text-anchor="middle"
       transform="rotate(45,-45.165481,-221.70815)"
       style="font-size:10px;font-family:'Gentium Basic';fill:#e7cb94"
       id="text906">Dutch</text>
    <text
       text-anchor="middle"
       transform="rotate(15,-385.34082,-725.87327)"
       style="font-size:10px;font-family:'Gentium Basic';fill:#843c39"
       id="text908">Nederlands</text>
    <text
       text-anchor="middle"
       transform="rotate(-15,363.4578,-794.43718)"
       style="font-size:10px;font-family:'Gentium Basic';fill:#ad494a"
       id="text910">Woordle</text>
    <text
       text-anchor="middle"
       transform="rotate(-60,77.533322,-30.291651)"
       style="font-size:10px;font-family:'Gentium Basic';fill:#d6616b"
       id="text912">original</text>
    <text
       text-anchor="middle"
       transform="rotate(15,102.82993,-187.40447)"
       style="font-size:10px;font-family:'Gentium Basic';fill:#de9ed6"
       id="text914">version</text>
    <text
       text-anchor="middle"
       transform="rotate(30,37.117324,340.05444)"
       style="font-size:10px;font-family:'Gentium Basic';fill:#bd9e39"
       id="text916">open</text>
    <text
       text-anchor="middle"
       transform="rotate(-45,148.4056,-211.47161)"
       style="font-size:10px;font-family:'Gentium Basic';fill:#e7ba52"
       id="text918">source</text>
    <text
       text-anchor="middle"
       transform="rotate(60,-132.33459,-25.210235)"
       style="font-size:10px;font-family:'Gentium Basic';fill:#e7969c"
       id="text920">Absurdle</text>
    <text
       text-anchor="middle"
       transform="rotate(-15,398.7132,-445.92612)"
       style="font-size:10px;font-family:'Gentium Basic';fill:#7b4173"
       id="text922">Adversarial</text>
    <text
       text-anchor="middle"
       transform="rotate(-45,87.976661,-31.441124)"
       style="font-size:10px;font-family:'Gentium Basic';fill:#a55194"
       id="text924">Lewdle</text>
    <text
       text-anchor="middle"
       transform="translate(-70,92)"
       style="font-size:10px;font-family:'Gentium Basic';fill:#ce6dbd"
       id="text926">Lewd</text>
    <text
       text-anchor="middle"
       transform="rotate(-60,1.200615,203.92047)"
       style="font-size:10px;font-family:'Gentium Basic';fill:#de9ed6"
       id="text928">WordGuessr</text>
    <text
       text-anchor="middle"
       transform="rotate(-15,-143.0427,294.12803)"
       style="font-size:10px;font-family:'Gentium Basic';fill:#393b79"
       id="text930">hello</text>
    <text
       text-anchor="middle"
       transform="rotate(-60,14.81793,126.33459)"
       style="font-size:10px;font-family:'Gentium Basic';fill:#5254a3"
       id="text932">wordl</text>
    <text
       text-anchor="middle"
       transform="rotate(45,-11.331992,324.30614)"
       style="font-size:10px;font-family:'Gentium Basic';fill:#6b6ecf"
       id="text934">letters</text>
    <text
       text-anchor="middle"
       transform="rotate(-60,38.774991,10.839746)"
       style="font-size:10px;font-family:'Gentium Basic';fill:#7b4173"
       id="text936">one</text>
    <text
       text-anchor="middle"
       transform="rotate(45,-18.993907,-144.86753)"
       style="font-size:10px;font-family:'Gentium Basic';fill:#9c9ede"
       id="text938">per</text>
    <text
       text-anchor="middle"
       transform="rotate(30,167.60254,-120.90897)"
       style="font-size:10px;font-family:'Gentium Basic';fill:#9c9ede"
       id="text940">day</text>
    <text
       text-anchor="middle"
       transform="rotate(-45,131.74265,-297.56959)"
       style="font-size:10px;font-family:'Gentium Basic';fill:#637939"
       id="text942">Queerdle</text>
    <text
       text-anchor="middle"
       transform="rotate(45,123.03048,-198.03911)"
       style="font-size:10px;font-family:'Gentium Basic';fill:#8ca252"
       id="text944">Yassification</text>
    <text
       text-anchor="middle"
       transform="rotate(15,-326.17069,692.04336)"
       style="font-size:10px;font-family:'Gentium Basic';fill:#b5cf6b"
       id="text946">Byrdle</text>
    <text
       text-anchor="middle"
       transform="rotate(60,32.660255,36.56922)"
       style="font-size:10px;font-family:'Gentium Basic';fill:#cedb9c"
       id="text948">related</text>
    <text
       text-anchor="middle"
       transform="rotate(15,-96.840553,86.159669)"
       style="font-size:10px;font-family:'Gentium Basic';fill:#8c6d31"
       id="text950">choral</text>
    <text
       text-anchor="middle"
       transform="rotate(15,265.53227,-301.55353)"
       style="font-size:10px;font-family:'Gentium Basic';fill:#bd9e39"
       id="text952">music</text>
    <text
       text-anchor="middle"
       transform="rotate(30,-144.55257,-375.26725)"
       style="font-size:10px;font-family:'Gentium Basic';fill:#e7ba52"
       id="text954">Werdle</text>
    <text
       text-anchor="middle"
       transform="rotate(-60,-35.403809,-238.6788)"
       style="font-size:10px;font-family:'Gentium Basic';fill:#e7cb94"
       id="text956">soulless</text>
    <text
       text-anchor="middle"
       transform="rotate(-45,287.82948,-104.22287)"
       style="font-size:10px;font-family:'Gentium Basic';fill:#843c39"
       id="text958">Saltong</text>
    <text
       text-anchor="middle"
       transform="rotate(-60,-123.00447,19.049981)"
       style="font-size:10px;font-family:'Gentium Basic';fill:#ad494a"
       id="text960">Finnish</text>
    <text
       text-anchor="middle"
       transform="rotate(30,3.3923026,-76.908965)"
       style="font-size:10px;font-family:'Gentium Basic';fill:#d6616b"
       id="text962">suomi</text>
    <text
       text-anchor="middle"
       transform="rotate(30,-104.66026,-315.95636)"
       style="font-size:10px;font-family:'Gentium Basic';fill:#e7969c"
       id="text964">Sanuli</text>
    <text
       text-anchor="middle"
       transform="translate(93,137)"
       style="font-size:10px;font-family:'Gentium Basic';fill:#7b4173"
       id="text966">français</text>
    <text
       text-anchor="middle"
       transform="rotate(-45,145.73759,146.63352)"
       style="font-size:10px;font-family:'Gentium Basic';fill:#a55194"
       id="text968">LeMOT</text>
    <text
       text-anchor="middle"
       transform="rotate(45,-8.9817167,-318.72035)"
       style="font-size:10px;font-family:'Gentium Basic';fill:#ce6dbd"
       id="text970">Moket</text>
    <text
       text-anchor="middle"
       transform="rotate(15,-84.978789,-352.00044)"
       style="font-size:10px;font-family:'Gentium Basic';fill:#de9ed6"
       id="text972">Sutom</text>
    <text
       text-anchor="middle"
       transform="rotate(60,146.82051,214.30058)"
       style="font-size:10px;font-family:'Gentium Basic';fill:#393b79"
       id="text974">adaptation</text>
    <text
       text-anchor="middle"
       transform="rotate(-15,122.92569,93.457547)"
       style="font-size:10px;font-family:'Gentium Basic';fill:#5254a3"
       id="text976">TV</text>
    <text
       text-anchor="middle"
       transform="rotate(-45,-64.240114,-104.39088)"
       style="font-size:10px;font-family:'Gentium Basic';fill:#6b6ecf"
       id="text978">show</text>
    <text
       text-anchor="middle"
       transform="rotate(-15,171.82996,-336.70256)"
       style="font-size:10px;font-family:'Gentium Basic';fill:#9c9ede"
       id="text980">Lingo</text>
    <text
       text-anchor="middle"
       transform="translate(166,-83)"
       style="font-size:10px;font-family:'Gentium Basic';fill:#637939"
       id="text982">Le</text>
    <text
       text-anchor="middle"
       transform="rotate(-60,-192.6551,89.68842)"
       style="font-size:10px;font-family:'Gentium Basic';fill:#8ca252"
       id="text984">mot</text>
    <text
       text-anchor="middle"
       transform="rotate(-30,277.27945,-19.703186)"
       style="font-size:10px;font-family:'Gentium Basic';fill:#b5cf6b"
       id="text986">Worldle</text>
    <text
       text-anchor="middle"
       transform="rotate(30,121.87048,-276.6551)"
       style="font-size:10px;font-family:'Gentium Basic';fill:#cedb9c"
       id="text988">du</text>
    <text
       text-anchor="middle"
       transform="rotate(-60,-165.38973,150.46341)"
       style="font-size:10px;font-family:'Gentium Basic';fill:#8c6d31"
       id="text990">jour</text>
    <text
       text-anchor="middle"
       transform="rotate(-60,-18.139132,257.4179)"
       style="font-size:10px;font-family:'Gentium Basic';fill:#bd9e39"
       id="text992">Geographythemed</text>
    <text
       text-anchor="middle"
       transform="rotate(-15,-296.7769,552.07517)"
       style="font-size:10px;font-family:'Gentium Basic';fill:#e7ba52"
       id="text994">Galician</text>
    <text
       text-anchor="middle"
       transform="rotate(-15,452.42612,349.3408)"
       style="font-size:10px;font-family:'Gentium Basic';fill:#e7cb94"
       id="text996">galego</text>
    <text
       text-anchor="middle"
       transform="rotate(-15,-268.60663,748.96903)"
       style="font-size:10px;font-family:'Gentium Basic';fill:#843c39"
       id="text998">WordleGalego</text>
    <text
       text-anchor="middle"
       transform="rotate(15,197.85136,-551.51129)"
       style="font-size:10px;font-family:'Gentium Basic';fill:#ad494a"
       id="text1000">WordleSpielen</text>
    <text
       text-anchor="middle"
       transform="rotate(-30,-290.62882,256.12623)"
       style="font-size:10px;font-family:'Gentium Basic';fill:#d6616b"
       id="text1002">Wordleat</text>
    <text
       text-anchor="middle"
       transform="rotate(30,54.810887,-56.686535)"
       style="font-size:10px;font-family:'Gentium Basic';fill:#e7969c"
       id="text1004">Austrian</text>
    <text
       text-anchor="middle"
       transform="translate(-23,141)"
       style="font-size:10px;font-family:'Gentium Basic';fill:#7b4173"
       id="text1006">Wort</text>
    <text
       text-anchor="middle"
       transform="rotate(45,174.55992,8.305083)"
       style="font-size:10px;font-family:'Gentium Basic';fill:#a55194"
       id="text1008">Meister</text>
    <text
       text-anchor="middle"
       transform="rotate(-60,-209.56665,154.98007)"
       style="font-size:10px;font-family:'Gentium Basic';fill:#ce6dbd"
       id="text1010">ελληνικά</text>
    <text
       text-anchor="middle"
       transform="rotate(15,596.38369,157.17047)"
       style="font-size:10px;font-family:'Gentium Basic';fill:#de9ed6"
       id="text1012">Hebrew</text>
    <text
       text-anchor="middle"
       transform="translate(24,52)"
       style="font-size:10px;font-family:'Gentium Basic';fill:#393b79"
       id="text1014">עברית</text>
    <text
       text-anchor="middle"
       transform="rotate(30,-58.157668,275.5833)"
       style="font-size:10px;font-family:'Gentium Basic';fill:#5254a3"
       id="text1016">מדויקת</text>
    <text
       text-anchor="middle"
       transform="rotate(30,67.153226,482.00635)"
       style="font-size:10px;font-family:'Gentium Basic';fill:#6b6ecf"
       id="text1018">במילה</text>
    <text
       text-anchor="middle"
       transform="rotate(60,28.662833,141.64548)"
       style="font-size:10px;font-family:'Gentium Basic';fill:#9c9ede"
       id="text1020">וורדלה</text>
    <text
       text-anchor="middle"
       transform="rotate(-30,169.35124,323.37753)"
       style="font-size:10px;font-family:'Gentium Basic';fill:#637939"
       id="text1022">מילן</text>
    <text
       text-anchor="middle"
       transform="rotate(-45,25.503566,276.43608)"
       style="font-size:10px;font-family:'Gentium Basic';fill:#8ca252"
       id="text1024">וורדעל</text>
    <text
       text-anchor="middle"
       transform="rotate(30,-271.01409,-399.38198)"
       style="font-size:10px;font-family:'Gentium Basic';fill:#b5cf6b"
       id="text1026">מילה</text>
    <text
       text-anchor="middle"
       transform="rotate(-45,6.1680092,-366.55487)"
       style="font-size:10px;font-family:'Gentium Basic';fill:#cedb9c"
       id="text1028">Icelandic</text>
    <text
       text-anchor="middle"
       transform="rotate(15,-53.266029,64.968159)"
       style="font-size:10px;font-family:'Gentium Basic';fill:#8c6d31"
       id="text1030">íslenska</text>
    <text
       text-anchor="middle"
       transform="rotate(60,14.585879,-122.73652)"
       style="font-size:10px;font-family:'Gentium Basic';fill:#bd9e39"
       id="text1032">Oðill</text>
    <text
       text-anchor="middle"
       transform="rotate(60,-24.414122,-190.2865)"
       style="font-size:10px;font-family:'Gentium Basic';fill:#e7ba52"
       id="text1034">Irish</text>
    <text
       text-anchor="middle"
       transform="rotate(45,-264.82338,-147.69343)"
       style="font-size:10px;font-family:'Gentium Basic';fill:#e7cb94"
       id="text1036">Gaeilge</text>
    <text
       text-anchor="middle"
       transform="translate(-215,130)"
       style="font-size:10px;font-family:'Gentium Basic';fill:#843c39"
       id="text1038">Foclach</text>
    <text
       text-anchor="middle"
       transform="rotate(-30,204.99743,-347.0711)"
       style="font-size:10px;font-family:'Gentium Basic';fill:#ad494a"
       id="text1040">Italian</text>
    <text
       text-anchor="middle"
       transform="rotate(-45,-296.11628,226.65537)"
       style="font-size:10px;font-family:'Gentium Basic';fill:#d6616b"
       id="text1042">italiano</text>
    <text
       text-anchor="middle"
       transform="rotate(-45,-143.66652,-117.49138)"
       style="font-size:10px;font-family:'Gentium Basic';fill:#e7969c"
       id="text1044">Verba</text>
    <text
       text-anchor="middle"
       transform="rotate(60,24.155792,215.83906)"
       style="font-size:10px;font-family:'Gentium Basic';fill:#7b4173"
       id="text1046">Parole</text>
    <text
       text-anchor="middle"
       transform="rotate(15,-132.88306,-774.56479)"
       style="font-size:10px;font-family:'Gentium Basic';fill:#a55194"
       id="text1048">Parolette</text>
    <text
       text-anchor="middle"
       transform="translate(276,-83)"
       style="font-size:10px;font-family:'Gentium Basic';fill:#ce6dbd"
       id="text1050">Indonesian</text>
    <text
       text-anchor="middle"
       transform="rotate(30,86.549973,-259.191)"
       style="font-size:10px;font-family:'Gentium Basic';fill:#de9ed6"
       id="text1052">bahasa</text>
    <text
       text-anchor="middle"
       transform="rotate(-60,-91.040364,-28.313468)"
       style="font-size:10px;font-family:'Gentium Basic';fill:#393b79"
       id="text1054">Indonesia</text>
    <text
       text-anchor="middle"
       transform="rotate(45,118.09545,-145.08326)"
       style="font-size:10px;font-family:'Gentium Basic';fill:#5254a3"
       id="text1056">Tevak</text>
    <text
       text-anchor="middle"
       transform="rotate(60,29.335284,264.8102)"
       style="font-size:10px;font-family:'Gentium Basic';fill:#6b6ecf"
       id="text1058">Kata</text>
    <text
       text-anchor="middle"
       transform="rotate(-15,124.36196,962.97988)"
       style="font-size:10px;font-family:'Gentium Basic';fill:#9c9ede"
       id="text1060">Norwegian</text>
    <text
       text-anchor="middle"
       transform="rotate(30,-162.07367,477.42751)"
       style="font-size:10px;font-family:'Gentium Basic';fill:#637939"
       id="text1062">norsk</text>
    <text
       text-anchor="middle"
       transform="rotate(30,184.30128,314.61662)"
       style="font-size:10px;font-family:'Gentium Basic';fill:#8ca252"
       id="text1064">Ordle</text>
    <text
       text-anchor="middle"
       transform="rotate(-30,-158.24613,-36.401928)"
       style="font-size:10px;font-family:'Gentium Basic';fill:#b5cf6b"
       id="text1066">Ordviss</text>
    <text
       text-anchor="middle"
       transform="rotate(30,205.89677,-45.169879)"
       style="font-size:10px;font-family:'Gentium Basic';fill:#cedb9c"
       id="text1068">Persian</text>
    <text
       text-anchor="middle"
       transform="rotate(-45,184.39444,80.621325)"
       style="font-size:10px;font-family:'Gentium Basic';fill:#8c6d31"
       id="text1070">فارسی</text>
    <text
       text-anchor="middle"
       transform="rotate(30,427.45638,311.4634)"
       style="font-size:10px;font-family:'Gentium Basic';fill:#bd9e39"
       id="text1072">واجور</text>
    <text
       text-anchor="middle"
       transform="rotate(30,76.382688,83.533318)"
       style="font-size:10px;font-family:'Gentium Basic';fill:#e7ba52"
       id="text1074">Polish</text>
    <text
       text-anchor="middle"
       transform="rotate(-15,-223.0321,754.96903)"
       style="font-size:10px;font-family:'Gentium Basic';fill:#e7cb94"
       id="text1076">polski</text>
    <text
       text-anchor="middle"
       transform="rotate(15,376.44719,746.36265)"
       style="font-size:10px;font-family:'Gentium Basic';fill:#843c39"
       id="text1078">Sudoku</text>
    <text
       text-anchor="middle"
       transform="rotate(30,-191.93007,485.42751)"
       style="font-size:10px;font-family:'Gentium Basic';fill:#ad494a"
       id="text1080">Literalnie</text>
    <text
       text-anchor="middle"
       transform="rotate(-45,-182.96804,120.78784)"
       style="font-size:10px;font-family:'Gentium Basic';fill:#d6616b"
       id="text1082">Wyrazik</text>
    <text
       text-anchor="middle"
       transform="rotate(-60,-121.2628,-9.9666801)"
       style="font-size:10px;font-family:'Gentium Basic';fill:#e7969c"
       id="text1084">português</text>
    <text
       text-anchor="middle"
       transform="rotate(-30,365.18139,-370.14993)"
       style="font-size:10px;font-family:'Gentium Basic';fill:#7b4173"
       id="text1086">Termo</text>
    <text
       text-anchor="middle"
       transform="rotate(15,460.55374,93.915058)"
       style="font-size:10px;font-family:'Gentium Basic';fill:#a55194"
       id="text1088">Letreco</text>
    <text
       text-anchor="middle"
       transform="rotate(-15,409.73445,-823.11807)"
       style="font-size:10px;font-family:'Gentium Basic';fill:#ce6dbd"
       id="text1090">Scottish</text>
    <text
       text-anchor="middle"
       transform="rotate(-60,123.54036,-27.978184)"
       style="font-size:10px;font-family:'Gentium Basic';fill:#de9ed6"
       id="text1092">Gaelic</text>
    <text
       text-anchor="middle"
       transform="rotate(-45,288.04521,-241.31223)"
       style="font-size:10px;font-family:'Gentium Basic';fill:#393b79"
       id="text1094">Gàidhlig</text>
    <text
       text-anchor="middle"
       transform="rotate(-30,-328.78908,323.90122)"
       style="font-size:10px;font-family:'Gentium Basic';fill:#5254a3"
       id="text1096">Facle</text>
    <text
       text-anchor="middle"
       transform="rotate(-30,295.34163,-34.863439)"
       style="font-size:10px;font-family:'Gentium Basic';fill:#6b6ecf"
       id="text1098">Spanish</text>
    <text
       text-anchor="middle"
       transform="rotate(60,-80.466682,-243.37238)"
       style="font-size:10px;font-family:'Gentium Basic';fill:#9c9ede"
       id="text1100">castellano</text>
    <text
       text-anchor="middle"
       transform="rotate(-45,150.11627,125.81981)"
       style="font-size:10px;font-family:'Gentium Basic';fill:#637939"
       id="text1102">ES</text>
    <text
       text-anchor="middle"
       transform="rotate(45,36.831993,-262.74369)"
       style="font-size:10px;font-family:'Gentium Basic';fill:#393b79"
       id="text1104" />
    <text
       text-anchor="middle"
       transform="translate(285,-98)"
       style="font-size:10px;font-family:'Gentium Basic';fill:#8ca252"
       id="text1106">Español</text>
    <text
       text-anchor="middle"
       transform="rotate(60,-12.763487,-220.10701)"
       style="font-size:10px;font-family:'Gentium Basic';fill:#b5cf6b"
       id="text1108">Swedish</text>
    <text
       text-anchor="middle"
       transform="translate(-36,155)"
       style="font-size:10px;font-family:'Gentium Basic';fill:#cedb9c"
       id="text1110">svenska</text>
    <text
       text-anchor="middle"
       transform="rotate(-30,-217.94229,141.60253)"
       style="font-size:10px;font-family:'Gentium Basic';fill:#8c6d31"
       id="text1112">Ordel</text>
    <text
       text-anchor="middle"
       transform="rotate(30,-311.23652,-422.60441)"
       style="font-size:10px;font-family:'Gentium Basic';fill:#bd9e39"
       id="text1114">Turkish</text>
    <text
       text-anchor="middle"
       transform="rotate(-60,111.62624,140.65768)"
       style="font-size:10px;font-family:'Gentium Basic';fill:#e7ba52"
       id="text1116">Türkçe</text>
    <text
       text-anchor="middle"
       transform="rotate(-15,0.1490126,703.21362)"
       style="font-size:10px;font-family:'Gentium Basic';fill:#e7cb94"
       id="text1118">TR</text>
    <text
       text-anchor="middle"
       transform="rotate(-30,19.34234,-564.81724)"
       style="font-size:10px;font-family:'Gentium Basic';fill:#843c39"
       id="text1120">Welsh</text>
    <text
       text-anchor="middle"
       transform="rotate(60,43.923048,-163.92305)"
       style="font-size:10px;font-family:'Gentium Basic';fill:#ad494a"
       id="text1122">Cymraeg</text>
    <text
       text-anchor="middle"
       transform="rotate(-60,-156.15768,138.47303)"
       style="font-size:10px;font-family:'Gentium Basic';fill:#d6616b"
       id="text1124">Gairglo</text>
    <text
       text-anchor="middle"
       transform="rotate(60,-64.172453,-233.14995)"
       style="font-size:10px;font-family:'Gentium Basic';fill:#e7969c"
       id="text1126">Yiddish</text>
    <text
       text-anchor="middle"
       transform="rotate(15,311.21317,-218.70236)"
       style="font-size:10px;font-family:'Gentium Basic';fill:#7b4173"
       id="text1128">ייִדיש</text>
    <text
       text-anchor="middle"
       transform="rotate(-15,-222.85123,1017.7247)"
       style="font-size:10px;font-family:'Gentium Basic';fill:#a55194"
       id="text1130">Multilingual</text>
    <text
       text-anchor="middle"
       transform="rotate(60,183.68842,-29.842325)"
       style="font-size:10px;font-family:'Gentium Basic';fill:#ce6dbd"
       id="text1132">ESCWordle</text>
    <text
       text-anchor="middle"
       transform="rotate(-15,-498.11764,-119.6703)"
       style="font-size:10px;font-family:'Gentium Basic';fill:#5254a3"
       id="text1134">Words</text>
    <text
       text-anchor="middle"
       transform="rotate(-30,-272.43267,233.00188)"
       style="font-size:10px;font-family:'Gentium Basic';fill:#de9ed6"
       id="text1136">Eurovision</text>
    <text
       text-anchor="middle"
       transform="rotate(-60,197.21024,-165.57815)"
       style="font-size:10px;font-family:'Gentium Basic';fill:#393b79"
       id="text1138">song</text>
    <text
       text-anchor="middle"
       transform="rotate(60,119.31793,54.664718)"
       style="font-size:10px;font-family:'Gentium Basic';fill:#5254a3"
       id="text1140">titles</text>
  </g>
</svg>
